R for Mass Spectrometry - 3 Identification data
…
The is the type of complete identification table that could be used to annotate an raw mass spectrometry Spectra object, as shown below.

3.3 Filtering data

Often, the PSM data is filtered to only retain reliable matches. The MSnID package can be used to set thresholds to attain user-defined PSM, peptide or protein-level FDRs. Here, we will simply filter out wrong identification manually.

Here, the filter() from the dplyr package comes very handy. We will thus start by converting the DataFrame to a tibble.

library(dplyr)
id_tbl <- tidyr::as_tibble(id)
id_tbl
##  # A tibble: 5,802 × 35
##    sequence                  spectrumID        chargeState  rank passThreshold
##    <chr>                     <chr>                   <int> <int> <lgl>        
##  1 RQCRTDFLNYLR              controllerType=0…           3     1 TRUE         
##  2 ESVALADQVTCVDWRNRKATKK    controllerType=0…           2     1 TRUE         
##  3 KELLCLAMQIIR              controllerType=0…           2     1 TRUE         
##  4 QRMARTSDKQQSIRFLERLCGR    controllerType=0…           3     1 TRUE         
##  5 KDEGSTEPLKVVRDMTDAICMLLR  controllerType=0…           3     1 TRUE         
##  6 DGGPAIYGHERVGRNAKKFKCLKFR controllerType=0…           3     1 TRUE         
##  # ℹ 5,796 more rows
##  # ℹ 30 more variables: experimentalMassToCharge <dbl>, …

Question

Remove decoy hits

Answer

id_tbl <- id_tbl |> 
    filter(!isDecoy)
id_tbl
##  # A tibble: 2,906 × 35
##    sequence                    spectrumID      chargeState  rank passThreshold
##    <chr>                       <chr>                 <int> <int> <lgl>        
##  1 RQCRTDFLNYLR                controllerType…           3     1 TRUE         
##  2 ESVALADQVTCVDWRNRKATKK      controllerType…           2     1 TRUE         
##  3 QRMARTSDKQQSIRFLERLCGR      controllerType…           3     1 TRUE         
##  4 DGGPAIYGHERVGRNAKKFKCLKFR   controllerType…           3     1 TRUE         
##  5 QRMARTSDKQQSIRFLERLCGR      controllerType…           2     1 TRUE         
##  6 CIDRARHVEVQIFGDGKGRVVALGER… controllerType…           3     1 TRUE         
##  # ℹ 2,900 more rows
##  # ℹ 30 more variables: experimentalMassToCharge <dbl>, …

Keep first rank matches

Answer

id_tbl <- id_tbl |> 
    filter(rank == 1)
id_tbl
##  # A tibble: 2,751 × 35
##    sequence                    spectrumID      chargeState  rank passThreshold
##    <chr>                       <chr>                 <int> <int> <lgl>        
##  1 RQCRTDFLNYLR                controllerType…           3     1 TRUE         
##  2 ESVALADQVTCVDWRNRKATKK      controllerType…           2     1 TRUE         
##  3 QRMARTSDKQQSIRFLERLCGR      controllerType…           3     1 TRUE         
##  4 DGGPAIYGHERVGRNAKKFKCLKFR   controllerType…           3     1 TRUE         
##  5 QRMARTSDKQQSIRFLERLCGR      controllerType…           2     1 TRUE         
##  6 CIDRARHVEVQIFGDGKGRVVALGER… controllerType…           3     1 TRUE         
##  # ℹ 2,745 more rows
##  # ℹ 30 more variables: experimentalMassToCharge <dbl>, …

Remove shared peptides. Start by identifying scans that match different proteins. For example scan 4884 matches proteins XXX_ECA3406 and ECA3415. Scan 4099 match XXX_ECA4416_1, XXX_ECA4416_2 and XXX_ECA4416_3. Then remove the scans that match any of these proteins.

Answer

mltm <-
    id_tbl |> 
    group_by(spectrumID) |> 
    mutate(nProts = length(unique(DatabaseAccess))) |> 
    filter(nProts > 1) |> 
    select(spectrumID, nProts)
mltm
##  # A tibble: 85 × 2
##  # Groups:   spectrumID [39]
##    spectrumID                                    nProts
##    <chr>                                          <int>
##  1 controllerType=0 controllerNumber=1 scan=1073      2
##  2 controllerType=0 controllerNumber=1 scan=1073      2
##  3 controllerType=0 controllerNumber=1 scan=6578      2
##  4 controllerType=0 controllerNumber=1 scan=6578      2
##  5 controllerType=0 controllerNumber=1 scan=5617      2
##  6 controllerType=0 controllerNumber=1 scan=5617      2
##  # ℹ 79 more rows

id_tbl <-
    id_tbl |> 
    filter(!spectrumID %in% mltm$spectrumID)
id_tbl
##  # A tibble: 2,666 × 35
##    sequence                    spectrumID      chargeState  rank passThreshold
##    <chr>                       <chr>                 <int> <int> <lgl>        
##  1 RQCRTDFLNYLR                controllerType…           3     1 TRUE         
##  2 ESVALADQVTCVDWRNRKATKK      controllerType…           2     1 TRUE         
##  3 QRMARTSDKQQSIRFLERLCGR      controllerType…           3     1 TRUE         
##  4 DGGPAIYGHERVGRNAKKFKCLKFR   controllerType…           3     1 TRUE         
##  5 QRMARTSDKQQSIRFLERLCGR      controllerType…           2     1 TRUE         
##  6 CIDRARHVEVQIFGDGKGRVVALGER… controllerType…           3     1 TRUE         
##  # ℹ 2,660 more rows
##  # ℹ 30 more variables: experimentalMassToCharge <dbl>, …
…
